R Notebook
…
# Top revenue by industry
inc %>%
    group_by(Industry) %>%
    summarise(Tot_Revenue = sum(Revenue)) %>%
    arrange(desc(Tot_Revenue))

## `summarise()` ungrouping output (override with `.groups` argument)

## # A tibble: 25 x 2
##    Industry                     Tot_Revenue
##    <fct>                              <dbl>
##  1 Business Products & Services 26367900000
##  2 IT Services                  20681300000
##  3 Health                       17863400000
##  4 Consumer Products & Services 14956400000
##  5 Logistics & Transportation   14840500000
##  6 Energy                       13771600000
##  7 Construction                 13174300000
##  8 Financial Services           13150900000
##  9 Food & Beverage              12911300000
## 10 Manufacturing                12684000000
## #  with 15 more rows

# Top growth rate by industry
inc %>%
    group_by(Industry) %>%
    summarise(mean_Growth_Rate = mean(Growth_Rate)) %>%
    arrange(desc(mean_Growth_Rate))

## `summarise()` ungrouping output (override with `.groups` argument)

## # A tibble: 25 x 2
##    Industry                     mean_Growth_Rate
##    <fct>                                   <dbl>
##  1 Energy                                   9.60
##  2 Consumer Products & Services             8.78
##  3 Real Estate                              7.75
##  4 Government Services                      7.24
##  5 Advertising & Marketing                  6.23
##  6 Retail                                   6.18
##  7 Financial Services                       5.44
##  8 Software                                 5.02
##  9 Health                                   4.86
## 10 Media                                    4.37
## #  with 15 more rows

# Top growth rate by industry
inc %>%
    group_by(Industry) %>%
    summarise(mean_Growth_Rate = mean(Growth_Rate)) %>%
    arrange(desc(mean_Growth_Rate))

## `summarise()` ungrouping output (override with `.groups` argument)

## # A tibble: 25 x 2
##    Industry                     mean_Growth_Rate
##    <fct>                                   <dbl>
##  1 Energy                                   9.60
##  2 Consumer Products & Services             8.78
##  3 Real Estate                              7.75
##  4 Government Services                      7.24
##  5 Advertising & Marketing                  6.23
##  6 Retail                                   6.18
##  7 Financial Services                       5.44
##  8 Software                                 5.02
##  9 Health                                   4.86
## 10 Media                                    4.37
## #  with 15 more rows

# Top revenue by city
inc %>%
    group_by(City, State) %>%
    summarise(Tot_Revenue = sum(Revenue)) %>%
    arrange(desc(Tot_Revenue))

## `summarise()` regrouping output by 'City' (override with `.groups` argument)

## # A tibble: 1,654 x 3
## # Groups:   City [1,519]
##    City         State Tot_Revenue
##    <fct>        <fct>       <dbl>
##  1 New York     NY    10500800000
##  2 Vernon Hills IL    10106100000
##  3 Chicago      IL     8737100000
##  4 Houston      TX     6553100000
##  5 Beloit       WI     4700000000
##  6 Mt. Sterling IL     4500000000
##  7 Cincinnati   OH     4459900000
##  8 Tarrytown    NY     3804600000
##  9 Huntersville NC     3516800000
## 10 Washington   DC     3268800000
## #  with 1,644 more rows

# Top growth rate by city
inc %>%
    group_by(City, State) %>%
    summarise(mean_Growth_Rate = mean(Growth_Rate)) %>%
    arrange(desc(mean_Growth_Rate))

## `summarise()` regrouping output by 'City' (override with `.groups` argument)

## # A tibble: 1,654 x 3
## # Groups:   City [1,519]
##    City          State mean_Growth_Rate
##    <fct>         <fct>            <dbl>
##  1 Dumfries      VA               248. 
##  2 Chino         CA               111. 
##  3 columbus      OH               100. 
##  4 Cupertino     CA                92.4
##  5 Bluffdale     UT                59.9
##  6 El Segundo    CA                56.2
##  7 Rock Hill     NY                53.6
##  8 Rochelle Park NJ                53.4
##  9 Saugus        MA                46.5
## 10 Warwick       RI                44.5
## #  with 1,644 more rows
…
